%YAML 1.1
%TAG !u! tag:unity3d.com,2011:
--- !u!1045 &1
EditorBuildSettings:
  m_ObjectHideFlags: 0
  serializedVersion: 2
  m_Scenes:
  - enabled: 1
    path: Assets/Scenes/Title.unity
    guid: 2c21ea6eaed2c5b4fb9480fbd358dbbf
  - enabled: 1
    path: Assets/Scenes/Game.unity
    guid: 26e7961a62866164e9b39d3b8c07e334
